<svg width="52" height="72" viewBox="0 0 52 72" fill="none" xmlns="http://www.w3.org/2000/svg">
<path d="M51.3594 72H0.078125V60.6094C4.42188 57.1719 8.3125 53.9219 11.75 50.8594C15.2188 47.7969 18.2656 44.8906 20.8906 42.1406C24.2969 38.5469 26.7656 35.3906 28.2969 32.6719C29.8281 29.9531 30.5938 27.1562 30.5938 24.2812C30.5938 21.0312 29.625 18.5469 27.6875 16.8281C25.75 15.0781 23.0469 14.2031 19.5781 14.2031C17.7969 14.2031 16.1094 14.4219 14.5156 14.8594C12.9531 15.2969 11.3594 15.8594 9.73438 16.5469C8.14062 17.2656 6.78125 18 5.65625 18.75C4.53125 19.5 3.6875 20.0625 3.125 20.4375H1.76562V5.20312C3.73438 4.26562 6.8125 3.3125 11 2.34375C15.1875 1.34375 19.2188 0.84375 23.0938 0.84375C31.375 0.84375 37.6406 2.6875 41.8906 6.375C46.1719 10.0625 48.3125 15.25 48.3125 21.9375C48.3125 26.0625 47.3438 30.1094 45.4062 34.0781C43.4688 38.0156 40.25 42.25 35.75 46.7812C32.9375 49.5625 30.2031 52.0469 27.5469 54.2344C24.8906 56.3906 22.9688 57.9219 21.7812 58.8281H51.3594V72Z" fill="black" fill-opacity="0.04"/>
</svg>
